move 1 from 9 to 2
move 4 from 6 to 1
move 4 from 2 to 6
move 5 from 8 to 7
move 4 from 9 to 2
move 1 from 5 to 8
move 1 from 3 to 1
move 2 from 3 to 1
move 1 from 4 to 2
move 11 from 7 to 2
move 5 from 5 to 1
move 1 from 6 to 8
move 1 from 7 to 6
move 3 from 6 to 7
move 1 from 3 to 2
move 1 from 6 to 8
move 11 from 2 to 1
move 1 from 9 to 8
move 1 from 3 to 7
move 4 from 7 to 9
move 3 from 3 to 7
move 4 from 8 to 2
move 3 from 7 to 6
move 2 from 6 to 3
move 5 from 4 to 1
move 1 from 6 to 5
move 26 from 1 to 7
move 1 from 4 to 6
move 22 from 7 to 5
move 4 from 9 to 1
move 3 from 7 to 3
move 1 from 6 to 3
move 6 from 1 to 7
move 2 from 7 to 5
move 8 from 1 to 9
move 4 from 3 to 4
move 10 from 2 to 7
move 6 from 7 to 4
move 2 from 9 to 5
move 1 from 5 to 1
move 8 from 4 to 1
move 2 from 5 to 9
move 1 from 3 to 6
move 1 from 9 to 1
move 1 from 3 to 6
move 2 from 5 to 2
move 1 from 4 to 2
move 1 from 2 to 3
move 7 from 1 to 4
move 9 from 7 to 4